Credit Limit
…
Tolerance of <0.1 might indicate multicollinearity.

VIF exceeding 5 requires further investigation, whereas the VIF higher than 10 directly indicates multicollinearity. 

Ideally, VIF should be lower than 3.

As follows these steps, only Income_Category - Less than $40K needs to be further investigated.

data2 <- data %>% filter(Income_Category != "Less than $40K")
data2 %>% filter(Marital_Status != "Married")                          

# A tibble: 2,446 × 14
   CLIENTNUM Attrition_Flag  Customer_Age Gender Dependent_count Education_Level
   <chr>     <chr>                  <dbl> <chr>            <dbl> <chr>          
 1 818906208 Existing Custo…           32 M                    0 High School    
 2 710930508 Existing Custo…           37 M                    3 Uneducated     
 3 719661558 Existing Custo…           48 M                    2 Graduate       
 4 708790833 Existing Custo…           42 M                    5 Uneducated     
 5 710599683 Existing Custo…           56 M                    1 College        
 6 816082233 Existing Custo…           35 M                    3 Graduate       
 7 709967358 Existing Custo…           48 M                    4 Post-Graduate  
 8 806165208 Existing Custo…           47 M                    1 Doctorate      
 9 720466383 Existing Custo…           59 M                    1 High School    
10 715190283 Existing Custo…           57 F                    1 Graduate       
# ℹ 2,436 more rows
# ℹ 8 more variables: Marital_Status <chr>, Income_Category <chr>,
#   Card_Category <chr>, Months_on_book <dbl>, Credit_Limit <dbl>,
#   Total_Trans_Amt <dbl>, Total_Ct_Chng_Q4_Q1 <dbl>,
#   Avg_Utilization_Ratio <dbl>
…
